{
    "count": 73806,
    "next": "https://gutendex.com/books/?page=2",
    "previous": "",
    "results": [
        {
            "id": 1513,
            "title": "Romeo and Juliet",
            "authors": [
                {
                    "name": "Shakespeare, William",
                    "birth_year": 1564,
                    "death_year": 1616
                }
            ],
            "translators": [],
            "subjects": [
                "Conflict of generations -- Drama",
                "Juliet (Fictitious character) -- Drama",
                "Romeo (Fictitious character) -- Drama",
                "Tragedies",
                "Vendetta -- Drama",
                "Verona (Italy) -- Drama",
                "Youth -- Drama"
            ],
            "bookshelves": [],
            "languages": [
                "en"
            ],
            "copyright": false,
            "media_type": "Text",
            "download_count": 72633
        },
        {
            "id": 2701,
            "title": "Moby Dick; Or, The Whale",
            "authors": [
                {
                    "name": "Melville, Herman",
                    "birth_year": 1819,
                    "death_year": 1891
                }
            ],
            "translators": [],
            "subjects": [
                "Adventure stories",
                "Ahab, Captain (Fictitious character) -- Fiction",
                "Mentally ill -- Fiction",
                "Psychological fiction",
                "Sea stories",
                "Ship captains -- Fiction",
                "Whales -- Fiction",
                "Whaling -- Fiction",
                "Whaling ships -- Fiction"
            ],
            "bookshelves": [
                "Best Books Ever Listings"
            ],
            "languages": [
                "en"
            ],
            "copyright": false,
            "media_type": "Text",
            "download_count": 65191
        }
        
    ]
}